5 * * * * root python /home/pi/2run/i2c_display.py test $sensor1 &
15 * * * * root python /home/pi/2run/i2c_display.py test $sensor1 &
20 * * * * root python /home/pi/2run/i2c_display.py test $sensor1 &
25 * * * * root python /home/pi/2run/i2c_display.py test $sensor1 &
30 * * * * root python /home/pi/2run/i2c_display.py test $sensor1 &
35 * * * * root python /home/pi/2run/i2c_display.py test $sensor1 &
40 * * * * root python /home/pi/2run/i2c_display.py test $sensor1 &
45 * * * * root python /home/pi/2run/i2c_display.py test $sensor1 &
50 * * * * root python /home/pi/2run/i2c_display.py test $sensor1 &
55 * * * * root python /home/pi/2run/i2c_display.py test $sensor1 &
0 * * * * root python /home/pi/2run/i2c_display.py test $sensor1 &

4 * * * * root sensor1=$(sudo /home/pi/2run/01_temperature_humidity)
6 * * * * root sensor1=$(sudo /home/pi/2run/01_temperature_humidity)
11 * * * * root sensor1=$(sudo /home/pi/2run/01_temperature_humidity)
16 * * * * root sensor1=$(sudo /home/pi/2run/01_temperature_humidity)
21 * * * * root sensor1=$(sudo /home/pi/2run/01_temperature_humidity)
26 * * * * root sensor1=$(sudo /home/pi/2run/01_temperature_humidity)
31 * * * * root sensor1=$(sudo /home/pi/2run/01_temperature_humidity)
36 * * * * root sensor1=$(sudo /home/pi/2run/01_temperature_humidity)
41 * * * * root sensor1=$(sudo /home/pi/2run/01_temperature_humidity)
46 * * * * root sensor1=$(sudo /home/pi/2run/01_temperature_humidity)
51 * * * * root sensor1=$(sudo /home/pi/2run/01_temperature_humidity)
56 * * * * root sensor1=$(sudo /home/pi/2run/01_temperature_humidity)
1 * * * * root sensor1=$(sudo /home/pi/2run/01_temperature_humidity)